…
dim(nyc_transit_clean)
```

    ## [1] 1868   20

Paragraph

``` r
# Question 1: Distinct function

 distinct(nyc_transit_clean, station_name, line)
```

    ## # A tibble: 465 x 2
    ##    line     station_name            
    ##    <chr>    <chr>                   
    ##  1 4 Avenue 25th St                 
    ##  2 4 Avenue 36th St                 
    ##  3 4 Avenue 45th St                 
    ##  4 4 Avenue 53rd St                 
    ##  5 4 Avenue 59th St                 
    ##  6 4 Avenue 77th St                 
    ##  7 4 Avenue 86th St                 
    ##  8 4 Avenue 95th St                 
    ##  9 4 Avenue 9th St                  
    ## 10 4 Avenue Atlantic Av-Barclays Ctr
    ## # ... with 455 more rows

There are 465 distinct stations.

``` r
# Question 2: ADA compliance

filter(nyc_transit_clean, ada == TRUE) %>%
distinct(station_name, line, ada = TRUE)
```

    ## # A tibble: 84 x 3
    ##    line            station_name                   ada  
    ##    <chr>           <chr>                          <lgl>
    ##  1 4 Avenue        Atlantic Av-Barclays Ctr       TRUE 
    ##  2 4 Avenue        DeKalb Av                      TRUE 
    ##  3 4 Avenue        Pacific St                     TRUE 
    ##  4 42nd St Shuttle Grand Central                  TRUE 
    ##  5 6 Avenue        34th St                        TRUE 
    ##  6 6 Avenue        47-50th Sts Rockefeller Center TRUE 
    ##  7 6 Avenue        Church Av                      TRUE 
    ##  8 63rd Street     21st St                        TRUE 
    ##  9 63rd Street     Lexington Av                   TRUE 
    ## 10 63rd Street     Roosevelt Island               TRUE 
    ## # ... with 74 more rows
…
    ## [1] 69

``` r
# Gathering route columns to make a tidier dataset

nyc_transit_tidy =
  gather(nyc_transit_clean, key = "route_number", value = "route_name", route1:route11) 

## Determining distinct stations that serve A train

filter(nyc_transit_tidy, route_name == "A") %>%
distinct(station_name, line, route_name = "A")
```

    ## # A tibble: 60 x 3
    ##    line            station_name                  route_name
    ##    <chr>           <chr>                         <chr>     
    ##  1 42nd St Shuttle Times Square                  A         
    ##  2 8 Avenue        125th St                      A         
    ##  3 8 Avenue        145th St                      A         
    ##  4 8 Avenue        14th St                       A         
    ##  5 8 Avenue        168th St - Washington Heights A         
    ##  6 8 Avenue        175th St                      A         
    ##  7 8 Avenue        181st St                      A         
    ##  8 8 Avenue        190th St                      A         
    ##  9 8 Avenue        34th St                       A         
    ## 10 8 Avenue        42nd St                       A         
    ## # ... with 50 more rows
…
